
2019-05-16T07:21:50.344 - User Login: ricksanchez(1)
2019-05-16T07:21:57.571 - User Logout: ricksanchez(1)
2019-05-16T10:04:58.686 - User Login: test(6)
2019-05-16T10:05:06.377 - User Logout: test(6)
2019-05-16T10:13:15.247 - User Login: test(6)
2019-05-16T10:13:21.856 - User Logout: test(6)
2019-05-22T17:36:25.284 - User Login: test(6)
2019-05-22T17:36:37.068 - User Logout: test(6)
2019-05-23T15:07:41.818 - User Login: test(6)
2019-05-23T15:11:58.176 - User Logout: test(6)
2019-05-23T15:24:38.276 - User Login: test(6)
2019-05-23T15:26:02.686 - User Logout: test(6)
2019-05-23T15:27:26.945 - User Login: test(6)
2019-05-23T15:28:04.733 - User Logout: test(6)
2019-05-23T15:29:19.509 - User Login: test(6)
2019-05-23T15:29:51.636 - User Logout: test(6)
2019-05-24T15:25:43.963 - User Login: test(6)
2019-05-24T15:26:09.983 - User Logout: test(6)
2019-05-24T15:27:48.974 - User Login: test(6)
2019-05-24T15:28:06.75 - User Logout: test(6)
2019-05-24T15:30:19.792 - User Login: test(6)
2019-05-24T15:49:12.326 - User Logout: test(6)
2019-05-25T11:31:14.736 - User Login: test(6)
2019-05-25T11:31:41.059 - User Logout: test(6)
2019-05-25T11:31:52.703 - User Login: test(6)
2019-05-25T11:33:10.406 - User Logout: test(6)
2019-05-25T11:36:57.352 - User Login: test(6)
2019-05-25T11:38:30.056 - User Logout: test(6)